{"description":"Documents published from 2026-05-22 to 2026-05-23","count":113,"total_pages":23,"next_page_url":"https://www.federalregister.gov/api/v1/documents?conditions%5Bpublication_date%5D%5Bgte%5D=2026-05-22&conditions%5Bpublication_date%5D%5Blte%5D=2026-05-23&format=json&page=3&per_page=5","previous_page_url":"https://www.federalregister.gov/api/v1/documents?conditions%5Bpublication_date%5D%5Bgte%5D=2026-05-22&conditions%5Bpublication_date%5D%5Blte%5D=2026-05-23&format=json&page=1&per_page=5","results":[{"title":"Request Notice: Use of Foreign-Built Small Passenger Vessel in United States Coastwise Trade, S/V 6 LINES","type":"Notice","abstract":"The Secretary of Transportation, as represented by MARAD, is authorized to make determinations regarding the coastwise use of foreign built; certain U.S. built; and U.S. and foreign rebuilt vessels that solely carry no more than twelve passengers for hire. MARAD has received such a determination request and is publishing this notice to solicit comments to assist with determining whether the proposed use of the vessel set forth in the request would have an adverse effect on U.S. vessel builders or U.S. coastwise trade businesses that use U.S.- built vessels in those businesses. Information about the requestor's vessel, including a description of the proposed service, is in the SUPPLEMENTARY INFORMATION section below.","document_number":"2026-10324","html_url":"https://www.federalregister.gov/documents/2026/05/22/2026-10324/request-notice-use-of-foreign-built-small-passenger-vessel-in-united-states-coastwise-trade-sv-6","pdf_url":"https://www.govinfo.gov/content/pkg/FR-2026-05-22/pdf/2026-10324.pdf","public_inspection_pdf_url":"https://public-inspection.federalregister.gov/2026-10324.pdf?1779367516","publication_date":"2026-05-22","agencies":[{"raw_name":"DEPARTMENT OF TRANSPORTATION","name":"Transportation Department","id":492,"url":"https://www.federalregister.gov/agencies/transportation-department","json_url":"https://www.federalregister.gov/api/v1/agencies/492","parent_id":null,"slug":"transportation-department"},{"raw_name":"Maritime Administration","name":"Maritime Administration","id":282,"url":"https://www.federalregister.gov/agencies/maritime-administration","json_url":"https://www.federalregister.gov/api/v1/agencies/282","parent_id":492,"slug":"maritime-administration"}],"excerpts":"The Secretary of Transportation, as represented by MARAD, is authorized to make determinations regarding the coastwise use of foreign built; certain U.S. built; and U.S. and foreign rebuilt vessels that solely carry no more than twelve passengers for..."},{"title":"Request Notice: Use of Foreign-Built Small Passenger Vessel in United States Coastwise Trade, M/V MAMA JUANA","type":"Notice","abstract":"The Secretary of Transportation, as represented by MARAD, is authorized to make determinations regarding the coastwise use of foreign built; certain U.S. built; and U.S. and foreign rebuilt vessels that solely carry no more than twelve passengers for hire. MARAD has received such a determination request and is publishing this notice to solicit comments to assist with determining whether the proposed use of the vessel set forth in the request would have an adverse effect on U.S. vessel builders or U.S. coastwise trade businesses that use U.S.- built vessels in those businesses. Information about the requestor's vessel, including a description of the proposed service, is in the SUPPLEMENTARY INFORMATION section below.","document_number":"2026-10335","html_url":"https://www.federalregister.gov/documents/2026/05/22/2026-10335/request-notice-use-of-foreign-built-small-passenger-vessel-in-united-states-coastwise-trade-mv-mama","pdf_url":"https://www.govinfo.gov/content/pkg/FR-2026-05-22/pdf/2026-10335.pdf","public_inspection_pdf_url":"https://public-inspection.federalregister.gov/2026-10335.pdf?1779367518","publication_date":"2026-05-22","agencies":[{"raw_name":"DEPARTMENT OF TRANSPORTATION","name":"Transportation Department","id":492,"url":"https://www.federalregister.gov/agencies/transportation-department","json_url":"https://www.federalregister.gov/api/v1/agencies/492","parent_id":null,"slug":"transportation-department"},{"raw_name":"Maritime Administration","name":"Maritime Administration","id":282,"url":"https://www.federalregister.gov/agencies/maritime-administration","json_url":"https://www.federalregister.gov/api/v1/agencies/282","parent_id":492,"slug":"maritime-administration"}],"excerpts":"The Secretary of Transportation, as represented by MARAD, is authorized to make determinations regarding the coastwise use of foreign built; certain U.S. built; and U.S. and foreign rebuilt vessels that solely carry no more than twelve passengers for..."},{"title":"Notice of OFAC Sanctions Action","type":"Notice","abstract":"The U.S. Department of the Treasury's Office of Foreign Assets Control (OFAC) is publishing the names of one or more persons and vessels that have been placed on OFAC's Specially Designated Nationals and Blocked Persons List (SDN List) based on OFAC's determination that one or more applicable legal criteria were satisfied. All property and interests in property subject to U.S. jurisdiction of these persons are blocked, and U.S. persons are generally prohibited from engaging in transactions with them. The vessels placed on the SDN List have been identified as property in which a blocked person has an interest.","document_number":"2026-10259","html_url":"https://www.federalregister.gov/documents/2026/05/22/2026-10259/notice-of-ofac-sanctions-action","pdf_url":"https://www.govinfo.gov/content/pkg/FR-2026-05-22/pdf/2026-10259.pdf","public_inspection_pdf_url":"https://public-inspection.federalregister.gov/2026-10259.pdf?1779367509","publication_date":"2026-05-22","agencies":[{"raw_name":"DEPARTMENT OF THE TREASURY","name":"Treasury Department","id":497,"url":"https://www.federalregister.gov/agencies/treasury-department","json_url":"https://www.federalregister.gov/api/v1/agencies/497","parent_id":null,"slug":"treasury-department"},{"raw_name":"Office of Foreign Assets Control","name":"Foreign Assets Control Office","id":203,"url":"https://www.federalregister.gov/agencies/foreign-assets-control-office","json_url":"https://www.federalregister.gov/api/v1/agencies/203","parent_id":497,"slug":"foreign-assets-control-office"}],"excerpts":"The U.S. Department of the Treasury's Office of Foreign Assets Control (OFAC) is publishing the names of one or more persons and vessels that have been placed on OFAC's Specially Designated Nationals and Blocked Persons List (SDN List) based on OFAC's..."},{"title":"Agency Information Collection Activities; Comment Request on Clean Vehicle Credits","type":"Notice","abstract":"In accordance with the Paperwork Reduction Act of 1995, the IRS is inviting comments on the information collection request outlined in this notice.","document_number":"2026-10279","html_url":"https://www.federalregister.gov/documents/2026/05/22/2026-10279/agency-information-collection-activities-comment-request-on-clean-vehicle-credits","pdf_url":"https://www.govinfo.gov/content/pkg/FR-2026-05-22/pdf/2026-10279.pdf","public_inspection_pdf_url":"https://public-inspection.federalregister.gov/2026-10279.pdf?1779367511","publication_date":"2026-05-22","agencies":[{"raw_name":"DEPARTMENT OF THE TREASURY","name":"Treasury Department","id":497,"url":"https://www.federalregister.gov/agencies/treasury-department","json_url":"https://www.federalregister.gov/api/v1/agencies/497","parent_id":null,"slug":"treasury-department"},{"raw_name":"Internal Revenue Service","name":"Internal Revenue Service","id":254,"url":"https://www.federalregister.gov/agencies/internal-revenue-service","json_url":"https://www.federalregister.gov/api/v1/agencies/254","parent_id":497,"slug":"internal-revenue-service"}],"excerpts":"In accordance with the Paperwork Reduction Act of 1995, the IRS is inviting comments on the information collection request outlined in this notice."},{"title":"Mandatory Survey of Foreign-Residents' Holdings of U.S. Securities","type":"Notice","abstract":"By this Notice the Department of the Treasury is informing the public that it is conducting a mandatory survey of foreign-residents' holdings of U.S. securities, including selected money market instruments, as of June 30, 2026. This mandatory survey is conducted under the authority of the International Investment and Trade in Services Survey Act. This Notice constitutes legal notification to all United States persons (defined below) who meet the reporting requirements set forth in this Notice that they must respond to, and comply with, this survey. Additional copies of the reporting forms SHLA (2025) (which remain applicable to this survey) and instructions may be printed from the internet at: https://home.treasury.gov/data/treasury- international-capital-tic-system-home-page/tic-forms-instructions/ forms-shl.","document_number":"2026-10302","html_url":"https://www.federalregister.gov/documents/2026/05/22/2026-10302/mandatory-survey-of-foreign-residents-holdings-of-us-securities","pdf_url":"https://www.govinfo.gov/content/pkg/FR-2026-05-22/pdf/2026-10302.pdf","public_inspection_pdf_url":"https://public-inspection.federalregister.gov/2026-10302.pdf?1779367514","publication_date":"2026-05-22","agencies":[{"raw_name":"DEPARTMENT OF THE TREASURY","name":"Treasury Department","id":497,"url":"https://www.federalregister.gov/agencies/treasury-department","json_url":"https://www.federalregister.gov/api/v1/agencies/497","parent_id":null,"slug":"treasury-department"}],"excerpts":"By this Notice the Department of the Treasury is informing the public that it is conducting a mandatory survey of foreign-residents' holdings of U.S. securities, including selected money market instruments, as of June 30, 2026. This mandatory survey is..."}]}